Open Case Studies: Exploring CO2 emissions across time
…
For example the country variable is made up of character
(abbreviated as chr) values.

CO2_emissions %>%
  select(country)

# A tibble: 192 × 1
   country            
   <chr>              
 1 Afghanistan        
 2 Albania            
 3 Algeria            
 4 Andorra            
 5 Angola             
 6 Antigua and Barbuda
 7 Argentina          
 8 Armenia            
 9 Australia          
10 Austria            
# … with 182 more rows
…
# A tibble: 6 × 4
  Country      Year   GDP Label                
  <chr>       <dbl> <dbl> <chr>                
1 Afghanistan  1801    NA GDP Growth/Capita (%)
2 Afghanistan  1802    NA GDP Growth/Capita (%)
3 Afghanistan  1803    NA GDP Growth/Capita (%)
4 Afghanistan  1804    NA GDP Growth/Capita (%)
5 Afghanistan  1805    NA GDP Growth/Capita (%)
6 Afghanistan  1806    NA GDP Growth/Capita (%)

gdp_growth %>%
  count(Year)

# A tibble: 219 × 2
    Year     n
   <dbl> <int>
 1  1801   194
 2  1802   194
 3  1803   194
 4  1804   194
 5  1805   194
 6  1806   194
 7  1807   194
 8  1808   194
 9  1809   194
10  1810   194
# … with 209 more rows
…
Looks good!

US Specific Data

Now we will take a look at the US data about disasters and
temperature.

Disasters

First, we consider the disasters that have occurred in the US.

us_disaster

# A tibble: 40 × 57
    Year Droug…¹ Droug…² Droug…³ Droug…⁴ Droug…⁵ Droug…⁶ Droug…⁷ Droug…⁸ Flood…⁹
   <dbl>   <dbl>   <dbl>   <dbl>   <dbl>   <dbl>   <dbl>   <dbl>   <dbl>   <dbl>
 1  1980       1    33.2    26.4    39.6    24.5    41.6    23.4    42.8       1
 2  1981       0     0       0       0       0       0       0       0         0
 3  1982       0     0       0       0       0       0       0       0         0
 4  1983       1     7.8     5.5     9       5       9.9     4.6    10.6       2
 5  1984       0     0       0       0       0       0       0       0         0
 6  1985       0     0       0       0       0       0       0       0         0
 7  1986       1     4.2     3.5     5       3.2     5.3     3       5.6       0
 8  1987       0     0       0       0       0       0       0       0         0
 9  1988       1    44.4    33.8    54      31.3    56.5    30.2    57.7       0
10  1989       1     6.4     5.6     7.4     5.3     7.6     5.1     7.9       0
# … with 30 more rows, 47 more variables: `Flooding Cost` <dbl>,
#   `Flooding Lower 75` <dbl>, `Flooding Upper 75` <dbl>,
#   `Flooding Lower 90` <dbl>, `Flooding Upper 90` <dbl>,
#   `Flooding Lower 95` <dbl>, `Flooding Upper 95` <dbl>, `Freeze Count` <dbl>,
#   `Freeze Cost` <dbl>, `Freeze Lower 75` <dbl>, `Freeze Upper 75` <dbl>,
#   `Freeze Lower 90` <dbl>, `Freeze Upper 90` <dbl>, `Freeze Lower 95` <dbl>,
#   `Freeze Upper 95` <dbl>, `Severe Storm Count` <dbl>, …
…
yearly_disasters

 [1]  3  2  3  5  2  5  2  0  1  5  3  4  7  5  6  5  4  3 10  5  4  2  4  7  5
[26]  6  7  5 12  7  6 16 11  9  8 10 15 16 14 14

We could then add this to our us_diaster tibble like so
using the bind_cols function of the dplyr
package:

us_disaster %>% bind_cols(Disaters = yearly_disasters)

# A tibble: 40 × 9
    Year `Drought Count` Flood…¹ Freez…² Sever…³ Tropi…⁴ Wildf…⁵ Winte…⁶ Disat…⁷
   <dbl>           <dbl>   <dbl>   <dbl>   <dbl>   <dbl>   <dbl>   <dbl>   <dbl>
 1  1980               1       1       0       0       1       0       0       3
 2  1981               0       0       1       1       0       0       0       2
 3  1982               0       0       0       2       0       0       1       3
 4  1983               1       2       1       0       1       0       0       5
 5  1984               0       0       0       2       0       0       0       2
 6  1985               0       0       1       0       3       0       1       5
 7  1986               1       0       0       1       0       0       0       2
 8  1987               0       0       0       0       0       0       0       0
 9  1988               1       0       0       0       0       0       0       1
10  1989               1       0       1       1       1       0       1       5
# … with 30 more rows, and abbreviated variable names ¹​`Flooding Count`,
#   ²​`Freeze Count`, ³​`Severe Storm Count`, ⁴​`Tropical Cyclone Count`,
#   ⁵​`Wildfire Count`, ⁶​`Winter Storm Count`, ⁷​Disaters
…
We just need to indicate the start and stop characters.

In this case the start would be 1 and the 4th character would be
where we want to stop, so we would use start = 1, stop = 4.
We can do this inside of the mutate() function to modify
the Date variable. In doing so, we will not need to use
pull() to pull the values for the Date
variable.

us_temperature %<>%
  mutate(Date = str_sub(Date, start = 1, end = 4))

us_temperature

# A tibble: 125 × 3
   Date  Value Anomaly
   <chr> <dbl>   <dbl>
 1 1895   50.3   -1.68
 2 1896   52.0   -0.03
 3 1897   51.6   -0.46
 4 1898   51.4   -0.59
 5 1899   51.0   -1.01
 6 1900   52.8    0.75
 7 1901   51.9   -0.15
 8 1902   51.6   -0.43
 9 1903   50.6   -1.4 
10 1904   51.2   -0.86
# … with 115 more rows
…
In this case, we filter to keep all rows where the
Indicator variable is equal to the word
Emissions. Notice that this needs to be in quotes, while
the variable name does not.

data_long %>%
  filter(Indicator == "Emissions")

# A tibble: 16,916 × 6
   Country      Year Label                       Indicator Value Region         
   <fct>       <dbl> <chr>                       <chr>     <dbl> <chr>          
 1 Afghanistan  1949 CO2 Emissions (Metric Tons) Emissions  14.7 Rest of the Wo…
 2 Afghanistan  1950 CO2 Emissions (Metric Tons) Emissions  84.3 Rest of the Wo…
 3 Afghanistan  1951 CO2 Emissions (Metric Tons) Emissions  91.7 Rest of the Wo…
 4 Afghanistan  1952 CO2 Emissions (Metric Tons) Emissions  91.7 Rest of the Wo…
 5 Afghanistan  1953 CO2 Emissions (Metric Tons) Emissions 106   Rest of the Wo…
 6 Afghanistan  1954 CO2 Emissions (Metric Tons) Emissions 106   Rest of the Wo…
 7 Afghanistan  1955 CO2 Emissions (Metric Tons) Emissions 154   Rest of the Wo…
 8 Afghanistan  1956 CO2 Emissions (Metric Tons) Emissions 183   Rest of the Wo…
 9 Afghanistan  1957 CO2 Emissions (Metric Tons) Emissions 293   Rest of the Wo…
10 Afghanistan  1958 CO2 Emissions (Metric Tons) Emissions 330   Rest of the Wo…
# … with 16,906 more rows

We also need to sum the emissions across countries for each year.
Here, we use the group_by() and summarize()
function that we previously learned about.

data_long %>%
  filter(Indicator == "Emissions") %>%
  group_by(Year) %>%
  summarize(Emissions = sum(Value))

# A tibble: 264 × 2
    Year Emissions
   <dbl>     <dbl>
 1  1751      9360
 2  1752      9360
 3  1753      9360
 4  1754      9370
 5  1755      9370
 6  1756     10000
 7  1757     10000
 8  1758     10000
 9  1759     10000
10  1760     10000
# … with 254 more rows
…
